session_III/formal_flow/design_exploration/fsm_reachability/booth_multiplier/test.vcd
$date
    Feb 12, 2020  18:36:21
$end
$version
    TOOL:	xmsim(64)	19.09-s001
$end
$timescale
    1 ps
$end

$scope module tb_booth_mult $end
$var parameter 32 !    W $end
$var parameter 32 "    N $end
$var reg       1 #    clk $end
$var reg       1 $    reset_n $end
$var reg       1 %    start $end
$var reg       8 &    multiplier [7:0] $end
$var reg       8 '    multiplicant [7:0] $end
$var reg      16 (    product [15:0] $end
$var reg       1 )    finish $end

$scope module booth_mult $end
$var parameter 32 *    W $end
$var parameter 32 +    N $end
$var wire      1 ,    clk  $end
$var wire      1 -    reset_n  $end
$var wire      1 .    start  $end
$var wire      8 /    multiplier [7:0] $end
$var wire      8 0    multiplicant [7:0] $end
$var reg      16 1    product [15:0] $end
$var reg       1 2    finish $end
$var reg       8 3    mcand [7:0] $end
$var reg       8 4    acc [7:0] $end
$var reg       3 5    cnt [2:0] $end
$var reg       9 6    mp [8:0] $end
$var reg       2 7    current [1:0] $end
$var reg       2 8    next [1:0] $end
$upscope $end

$upscope $end

$enddefinitions $end
$dumpvars
b11 +
b1000 *
b11 "
b1000 !
x#
x$
x%
bx &
bx '
bx (
x)
x,
x-
x.
bx /
bx 0
bx 1
x2
bx 3
bx 4
bx 5
bx 6
bx 7
b0 8
$end
#5000
0#
1#
1,
b0 7
#10000
0#
0,
#15000
0$
1#
1,
0-
#20000
1$
0#
0,
1-
#25000
b100 &
1#
1,
b100 /
#30000
b1000 '
0#
0,
b1000 0
#35000
1%
1#
1,
1.
b1 8
b1000 6
b1000 3
02
b0 4
b111 5
b100 1
b100 (
0)
#40000
0#
0,
#45000
1#
1,
b1 7
b10 8
#50000
0#
0,
#55000
1#
1,
b10 7
b1 8
#60000
0#
0,
#65000
1#
1,
b100 6
b110 5
b1 7
b10 1
b10 8
b10 (
#70000
0#
0,
#75000
1#
1,
b10 7
b1 8
#80000
0#
0,
#85000
1#
1,
b10 6
b101 5
b1 7
b1 1
b10 8
b1 (
#90000
0#
0,
#95000
1#
1,
b11111000 4
b10 7
b1111100000000001 1
b1 8
b1111100000000001 (
#100000
0#
0,
#105000
1#
1,
b1 6
b11111100 4
b100 5
b1 7
b1111110000000000 1
b10 8
b1111110000000000 (
#110000
0#
0,
#115000
1#
1,
b100 4
b10 7
b10000000000 1
b1 8
b10000000000 (
#120000
0#
0,
#125000
1#
1,
b0 6
b10 4
b11 5
b1 7
b1000000000 1
b10 8
b1000000000 (
#130000
0#
0,
#135000
1#
1,
b10 7
b1 8
#140000
0#
0,
#145000
1#
1,
b1 4
b10 5
b1 7
b100000000 1
b10 8
b100000000 (
#150000
0#
0,
#155000
1#
1,
b10 7
b1 8
#160000
0#
0,
#165000
1#
1,
b100000000 6
b0 4
b1 5
b1 7
b10000000 1
b10 8
b10000000 (
#170000
0#
0,
#175000
1#
1,
b10 7
b1 8
#180000
0#
0,
#185000
1#
1,
b10000000 6
b0 5
b1 7
b1000000 1
b10 8
b1000000 (
#190000
0#
0,
#195000
1#
1,
b10 7
b0 8
#200000
0#
0,
#205000
1#
1,
b1000000 6
b111 5
12
b0 7
b100000 1
b1 8
b100000 (
1)
#210000
0#
0,
#215000
1#
1,
b1000 6
02
b1 7
b100 1
b10 8
b100 (
0)
#220000
0#
0,
#225000
1#
1,
b10 7
b1 8
#230000
0#
0,
#235000
1#
1,
b100 6
b110 5
b1 7
b10 1
b10 8
b10 (
#240000
0#
0,
#245000
1#
1,
b10 7
b1 8
#250000
0#
0,
#255000
1#
1,
b10 6
b101 5
b1 7
b1 1
b10 8
b1 (
#260000
0#
0,
#265000
1#
1,
b11111000 4
b10 7
b1111100000000001 1
b1 8
b1111100000000001 (
#270000
0#
0,
#275000
1#
1,
b1 6
b11111100 4
b100 5
b1 7
b1111110000000000 1
b10 8
b1111110000000000 (
#280000
0#
0,
#285000
1#
1,
b100 4
b10 7
b10000000000 1
b1 8
b10000000000 (
#290000
0#
0,
#295000
1#
1,
b0 6
b10 4
b11 5
b1 7
b1000000000 1
b10 8
b1000000000 (
#300000
0#
0,
#305000
1#
1,
b10 7
b1 8
#310000
0#
0,
#315000
1#
1,
b1 4
b10 5
b1 7
b100000000 1
b10 8
b100000000 (
#320000
0#
0,
#325000
1#
1,
b10 7
b1 8
#330000
0#
0,
#335000
1#
1,
b100000000 6
b0 4
b1 5
b1 7
b10000000 1
b10 8
b10000000 (
#340000
0#
0,
#345000
1#
1,
b10 7
b1 8
#350000
0#
0,
#355000
1#
1,
b10000000 6
b0 5
b1 7
b1000000 1
b10 8
b1000000 (
#360000
0#
0,
#365000
1#
1,
b10 7
b0 8
#370000
0#
0,
#375000
1#
1,
b1000000 6
b111 5
12
b0 7
b100000 1
b1 8
b100000 (
1)
#380000
0#
0,
#385000
1#
1,
b1000 6
02
b1 7
b100 1
b10 8
b100 (
0)
#390000
0#
0,
#395000
1#
1,
b10 7
b1 8
#400000
0#
0,
#405000
1#
1,
b100 6
b110 5
b1 7
b10 1
b10 8
b10 (
#410000
0#
0,
#415000
1#
1,
b10 7
b1 8
#420000
0#
0,
#425000
1#
1,
b10 6
b101 5
b1 7
b1 1
b10 8
b1 (
#430000
0#
0,
#435000
1#
1,
b11111000 4
b10 7
b1111100000000001 1
b1 8
b1111100000000001 (
#440000
0#
0,
#445000
1#
1,
b1 6
b11111100 4
b100 5
b1 7
b1111110000000000 1
b10 8
b1111110000000000 (
#450000
0#
0,
#455000
1#
1,
b100 4
b10 7
b10000000000 1
b1 8
b10000000000 (
#460000
0#
0,
#465000
1#
1,
b0 6
b10 4
b11 5
b1 7
b1000000000 1
b10 8
b1000000000 (
#470000
0#
0,
#475000
1#
1,
b10 7
b1 8
#480000
0#
0,
#485000
1#
1,
b1 4
b10 5
b1 7
b100000000 1
b10 8
b100000000 (
#490000
0#
0,
#495000
1#
1,
b10 7
b1 8
#500000
0#
0,
#505000
1#
1,
b100000000 6
b0 4
b1 5
b1 7
b10000000 1
b10 8
b10000000 (
#510000
0#
0,
#515000
1#
1,
b10 7
b1 8
#520000
0#
0,
#525000
1#
1,
b10000000 6
b0 5
b1 7
b1000000 1
b10 8
b1000000 (
#530000
0#
0,
#535000
1#
1,
b10 7
b0 8
#540000
0#
0,
#545000
1#
1,
b1000000 6
b111 5
12
b0 7
b100000 1
b1 8
b100000 (
1)
#550000
0#
0,
#555000
1#
1,
b1000 6
02
b1 7
b100 1
b10 8
b100 (
0)
#560000
0#
0,
#565000
1#
1,
b10 7
b1 8
#570000
0#
0,
#575000
1#
1,
b100 6
b110 5
b1 7
b10 1
b10 8
b10 (
#580000
0#
0,
#585000
1#
1,
b10 7
b1 8
#590000
0#
0,
#595000
1#
1,
b10 6
b101 5
b1 7
b1 1
b10 8
b1 (
#600000
0#
0,
#605000
1#
1,
b11111000 4
b10 7
b1111100000000001 1
b1 8
b1111100000000001 (
#610000
0#
0,
#615000
1#
1,
b1 6
b11111100 4
b100 5
b1 7
b1111110000000000 1
b10 8
b1111110000000000 (
#620000
0#
0,
#625000
1#
1,
b100 4
b10 7
b10000000000 1
b1 8
b10000000000 (
#630000
0#
0,
#635000
1#
1,
b0 6
b10 4
b11 5
b1 7
b1000000000 1
b10 8
b1000000000 (
#640000
0#
0,
#645000
1#
1,
b10 7
b1 8
#650000
0#
0,
#655000
1#
1,
b1 4
b10 5
b1 7
b100000000 1
b10 8
b100000000 (
#660000
0#
0,
#665000
1#
1,
b10 7
b1 8
#670000
0#
0,
#675000
1#
1,
b100000000 6
b0 4
b1 5
b1 7
b10000000 1
b10 8
b10000000 (
#680000
0#
0,
#685000
1#
1,
b10 7
b1 8
#690000
0#
0,
#695000
1#
1,
b10000000 6
b0 5
b1 7
b1000000 1
b10 8
b1000000 (
#700000
0#
0,
#705000
1#
1,
b10 7
b0 8
#710000
0#
0,
#715000
1#
1,
b1000000 6
b111 5
12
b0 7
b100000 1
b1 8
b100000 (
1)
#720000
0#
0,
#725000
1#
1,
b1000 6
02
b1 7
b100 1
b10 8
b100 (
0)
#730000
0#
0,
#735000
1#
1,
b10 7
b1 8
#740000
0#
0,
#745000
1#
1,
b100 6
b110 5
b1 7
b10 1
b10 8
b10 (
#750000
0#
0,
#755000
1#
1,
b10 7
b1 8
#760000
0#
0,
#765000
1#
1,
b10 6
b101 5
b1 7
b1 1
b10 8
b1 (
#770000
0#
0,
#775000
1#
1,
b11111000 4
b10 7
b1111100000000001 1
b1 8
b1111100000000001 (
#780000
0#
0,
#785000
1#
1,
b1 6
b11111100 4
b100 5
b1 7
b1111110000000000 1
b10 8
b1111110000000000 (
#790000
0#
0,
#795000
1#
1,
b100 4
b10 7
b10000000000 1
b1 8
b10000000000 (
#800000
0#
0,
#805000
1#
1,
b0 6
b10 4
b11 5
b1 7
b1000000000 1
b10 8
b1000000000 (
#810000
0#
0,
#815000
1#
1,
b10 7
b1 8
#820000
0#
0,
#825000
1#
1,
b1 4
b10 5
b1 7
b100000000 1
b10 8
b100000000 (
#830000
0#
0,
#835000
1#
1,
b10 7
b1 8
#840000
0#
0,
#845000
1#
1,
b100000000 6
b0 4
b1 5
b1 7
b10000000 1
b10 8
b10000000 (
#850000
0#
0,
#855000
1#
1,
b10 7
b1 8
#860000
0#
0,
#865000
1#
1,
b10000000 6
b0 5
b1 7
b1000000 1
b10 8
b1000000 (
#870000
0#
0,
#875000
1#
1,
b10 7
b0 8
#880000
0#
0,
#885000
1#
1,
b1000000 6
b111 5
12
b0 7
b100000 1
b1 8
b100000 (
1)
#890000
0#
0,
#895000
1#
1,
b1000 6
02
b1 7
b100 1
b10 8
b100 (
0)
#900000
0#
0,
#905000
1#
1,
b10 7
b1 8
#910000
0#
0,
#915000
1#
1,
b100 6
b110 5
b1 7
b10 1
b10 8
b10 (
#920000
0#
0,
#925000
1#
1,
b10 7
b1 8
